[{
        "command": "head -n N <file>",
        "description": "to print the N first lines of <file>"
    },
    {
        "command": "tail in +N <file>",
        "description": "to print lines from N to end"
    },
    {
        "command": "cat <file> | wc -l",
        "description": "to count lines of <file>"
    },
    {
        "command": "xsel & xclip",
        "description": "to manage clipboard from terminal"
    },
    {
        "command": "xsel -p < <file>",
        "description": "to put the content of <file> in primary clipboard, -s to secondary"
    },
    {
        "command": "more /etc/*release",
        "description": "to know what distribution is"
    },
    {
        "command": "uname -a",
        "description": "to get informations about kernel"
    },
    {
        "command": "dmesg -H",
        "description": "display kernel  journal in human-readable format"
    },
    {
        "command": "pushd & popd",
        "description": "create a stack of directories"
    },
    {
        "command": "locate",
        "description": "to find files using an index of files (faster than find)"
    },
    {
        "command": "updatedb",
        "description": "update the index for locate command"
    },
    {
        "command": "find ./* -exec grep -inH <string> \\{\\} \\;",
        "description": "find all occurences of <string> in all files of current directory and print filename and line number before each occurence. -i case insensitive -n print line number -H print filename"
    },
    {
        "command": "find ./* -exec wc -l \\{\\} \\;",
        "description": "for each file, print the number of lines"
    },
    {
        "command": "grep -e '^.*$' <file>",
        "description": "count lines who begins by  in <file>"
    },
    {
        "command": "df -h",
        "description": "print disk usage for each disk of fs in human-readable format"
    },
    {
        "command": "du -hs * | sort -rh",
        "description": "to print the sizes of files or directories in . and sorting the results by size DESC"
    },
    {
        "command": "pstree",
        "description": "show process in a tree (more visual than normal ps) you can see what run what"
    },
    {
        "command": "systemctl start <service>",
        "description": "manualy start <service> (systemd system)"
    },
    {
        "command": "systemctl status <service>",
        "description": "get status of of <service>"
    },
    {
        "command": "systemctl stop <service>",
        "description": "manualy stop <service>"
    },
    {
        "command": "systemd-analyze",
        "description": "print the startup time"
    },
    {
        "command": "systemd-analyze blame",
        "description": "print list of running services ordered by time to init"
    },
    {
        "command": "systemd-analyze plot > out.svg",
        "description": "generate SVG graphic showing services initialization"
    },
    {
        "command": "chroot <root> <command>",
        "description": "run command or shell in different root directory to not affect the system (to try something stupid for example)"
    },
    {
        "command": "diff -q <file1> <file2>",
        "description": "say if <file1> and <file2> are diffrents"
    },
    {
        "command": "diff --color <file1> <file2>",
        "description": "show the differences between <file1> and <file2>"
    },
    {
        "command": "ip addr show",
        "description": "show informations about network interfaces like IPP addresses or MAC addresses"
    },
    {
        "command": "lsof -i",
        "description": "list all open internet connexions"
    },
    {
        "command": "lsof",
        "description": "list all files opened by processes"
    },
    {
        "command": "lsof -p <pid>",
        "description": "list all files opened by process identified by <pid>"
    },
    {
        "command": "echo <password> | cracklib-check",
        "description": "check the strength of <password>"
    },
    {
        "command": "su -",
        "description": "become root user (if you can BTW)"
    },
    {
        "command": "mpstat -P ALL",
        "description": "print CPU usage statistics for each processor"
    },
    {
        "command": "mpstat",
        "description": "print summarized CPU usage"
    },
    {
        "command": "rev <string>",
        "description": "print the string reversed (test -> tset). useful to cut after"
    },
    {
        "command": "cut -d <delimiter> -f <field>",
        "description": "print section of file delimited by <delimiter>"
    }
]
